{
    "ResourceRecordSets": [
        {
            "Name": "local.",
            "Type": "NS",
            "TTL": 172800,
            "ResourceRecords": [
                {
                    "Value": "ns-1536.awsdns-00.co.uk."
                },
                {
                    "Value": "ns-0.awsdns-00.com."
                },
                {
                    "Value": "ns-1024.awsdns-00.org."
                },
                {
                    "Value": "ns-512.awsdns-00.net."
                }
            ]
        },
        {
            "Name": "local.",
            "Type": "SOA",
            "TTL": 900,
            "ResourceRecords": [
                {
                    "Value": "ns-1536.awsdns-00.co.uk. awsdns-hostmaster.amazon.com. 1 7200 900 1209600 86400"
                }
            ]
        },
        {
            "SetIdentifier": "364b03b0-3aef-4492-80b0-5ffb52e413d6",
            "Type": "A",
            "ResourceRecords": [
                {
                    "Value": "10.64.60.176"
                }
            ],
            "HealthCheckId": "c558cca1-6fce-4e58-8f74-83831dcc7965",
            "Name": "grouper-ui.local.",
            "TTL": 60,
            "MultiValueAnswer": true
        }
    ]
}
